%feature("docstring") PythonBNListener::setWhenArcAdded
"

"

%feature("docstring") PythonBNListener::setWhenArcDeleted
"

"

%feature("docstring") PythonBNListener::setWhenNodeAdded
"

"

%feature("docstring") PythonBNListener::setWhenNodeDeleted
"

"